{
  "users": [
    {
      "id": 3,
      "fname": "Shuruti",
      "lname": "Gupta",
      "username": "Samantha",
      "email": "Shuruti@gmail.com",
      "city": "pashan",
      "zipcode": "7595904151"
    },
    {
      "id": 6,
      "fname": "Mohit",
      "lname": "Yadav",
      "username": "Leopoldo_Corkery",
      "email": "Mohit@gmail.com",
      "city": "Balewadi",
      "zipcode": "8235051337"
    },
    {
      "id": 7,
      "fname": "Parth",
      "lname": "Bundela",
      "username": "Elwyn.Skiles",
      "email": "Parth@gmail.com",
      "city": "Delhi",
      "zipcode": "7588041099"
    },
    {
      "id": 8,
      "fname": "Bharat",
      "lname": "Patil",
      "email": "Bharat@gmail.com",
      "city": "Goa",
      "zipcode": "8534245169"
    },
    {
      "id": 9,
      "fname": "Suresh",
      "lname": "Mahajan",
      "email": "Suresh@gmail.com",
      "city": "Pune",
      "zipcode": "7649574109"
    },
    {
      "id": 10,
      "fname": "Mahesh",
      "lname": "Khan",
      "email": "Mahesh@gmail.com",
      "city": "Mumbai",
      "zipcode": "9314280261"
    },
    {
      "fname": "Rohan",
      "lname": "kaware",
      "zipcode": "9757485369",
      "email": "Rohan@gmail.com",
      "city": "Latur",
      "id": 11
    },
    {
      "fname": "lokesh",
      "lname": "shinde",
      "zipcode": "7638363829",
      "email": "lokesh@gmail.com",
      "city": "pune",
      "id": 12
    },
    {
      "fname": "Kartik",
      "lname": "swami",
      "zipcode": "8784674376",
      "email": "Kartik@gmail.com",
      "city": "nashik",
      "id": 13
    },
    {
      "fname": "sid",
      "lname": "shah",
      "zipcode": "8749823757",
      "email": "sid@gmail.com",
      "city": "Newyork",
      "id": 14
    }
  ]
}